Aditya Mangal's Blog: The Winter Olympics: MakeOverMonday 2018 Week7
…
Reading and viewing the dataset

Show code

GET("https://query.data.world/s/n5nc32oqhtb25hdt3vsa24rd4scs2w", write_disk(tf <- tempfile(fileext = ".xlsx")))

Show code

olympics = read_excel(tf)

Show code

olympics

# A tibble: 2,865 x 9
    Year Sport         Event        Country  Gender `Medal Rank` Medal
   <dbl> <chr>         <chr>        <chr>    <chr>         <dbl> <chr>
 1  1924 Bobsled       Men's Four/ Switzer Men               1 gold 
 2  1924 Bobsled       Men's Four/ Britain  Men               2 silv
 3  1924 Bobsled       Men's Four/ Belgium  Men               3 bron
 4  1924 Cross-Countr Men's 18 Ki Norway   Men               1 gold 
 5  1924 Cross-Countr Men's 18 Ki Norway   Men               2 silv
 6  1924 Cross-Countr Men's 18 Ki Finland  Men               3 bron
 7  1924 Cross-Countr Men's 50 Ki Norway   Men               1 gold 
 8  1924 Cross-Countr Men's 50 Ki Norway   Men               2 silv
 9  1924 Cross-Countr Men's 50 Ki Norway   Men               3 bron
10  1924 Curling       Men's Curli Britain  Men               1 gold 
#  with 2,855 more rows, and 2 more variables:
#   Name of Athlete or Team <chr>, Age of Athlete <dbl>
…
olympics = olympics %>% 
  mutate(Country = recode(Country, "Soviet Union" = "Russia", "Unified Team" = "Russia",
                          "East Germany" = "Germany", "West Germany" = "Germany"))

Reading in the ISO-3166 country codes dataset in order to generate the choropleth

Show code

countryCodes = read_csv("https://raw.githubusercontent.com/lukes/ISO-3166-Countries-with-Regional-Codes/master/all/all.csv")

Show code

countryCodes

# A tibble: 249 x 11
   name        `alpha-2` `alpha-3` `country-code` `iso_3166-2`  region
   <chr>       <chr>     <chr>     <chr>          <chr>         <chr> 
 1 Afghanistan AF        AFG       004            ISO 3166-2:AF Asia  
 2 land Isla AX        ALA       248            ISO 3166-2:AX Europe
 3 Albania     AL        ALB       008            ISO 3166-2:AL Europe
 4 Algeria     DZ        DZA       012            ISO 3166-2:DZ Africa
 5 American S AS        ASM       016            ISO 3166-2:AS Ocean
 6 Andorra     AD        AND       020            ISO 3166-2:AD Europe
 7 Angola      AO        AGO       024            ISO 3166-2:AO Africa
 8 Anguilla    AI        AIA       660            ISO 3166-2:AI Ameri
 9 Antarctica  AQ        ATA       010            ISO 3166-2:AQ <NA>  
10 Antigua an AG        ATG       028            ISO 3166-2:AG Ameri
#  with 239 more rows, and 5 more variables: sub-region <chr>,
#   intermediate-region <chr>, region-code <chr>,
#   sub-region-code <chr>, intermediate-region-code <chr>
…
Joining and viewing the 2 datasets

Show code

olympics = olympics %>% 
  left_join(countryCodes, by=c("Country" = "name"))
olympics

# A tibble: 2,865 x 19
    Year Sport     Event    Country          Gender `Medal Rank` Medal
   <dbl> <chr>     <chr>    <chr>            <chr>         <dbl> <chr>
 1  1924 Bobsled   Men's F Switzerland      Men               1 gold 
 2  1924 Bobsled   Men's F United Kingdom  Men               2 silv
 3  1924 Bobsled   Men's F Belgium          Men               3 bron
 4  1924 Cross-Co Men's 1 Norway           Men               1 gold 
 5  1924 Cross-Co Men's 1 Norway           Men               2 silv
 6  1924 Cross-Co Men's 1 Finland          Men               3 bron
 7  1924 Cross-Co Men's 5 Norway           Men               1 gold 
 8  1924 Cross-Co Men's 5 Norway           Men               2 silv
 9  1924 Cross-Co Men's 5 Norway           Men               3 bron
10  1924 Curling   Men's C United Kingdom  Men               1 gold 
#  with 2,855 more rows, and 12 more variables:
#   Name of Athlete or Team <chr>, Age of Athlete <dbl>,
#   alpha-2 <chr>, alpha-3 <chr>, country-code <chr>,
#   iso_3166-2 <chr>, region <chr>, sub-region <chr>,
#   intermediate-region <chr>, region-code <chr>,
#   sub-region-code <chr>, intermediate-region-code <chr>

Aggregating per country to find the total number of medals for each country and its corresponding alpha-3 code.

Show code

TotalMedalsPerCountry = olympics %>% 
  group_by(Country, `alpha-3`) %>% 
  summarise(TotalMedals = n()) %>% 
  rename(Code = `alpha-3`)
TotalMedalsPerCountry

# A tibble: 39 x 3
# Groups:   Country [39]
   Country        Code  TotalMedals
   <chr>          <chr>       <int>
 1 Australia      AUS            12
 2 Austria        AUT           218
 3 Belarus        BLR            15
 4 Belgium        BEL             5
 5 Bulgaria       BGR             6
 6 Canada         CAN           170
 7 China          CHN            53
 8 Croatia        HRV            11
 9 Czech Republic <NA>           49
10 Denmark        DNK             1
#  with 29 more rows

Lets see the top countries based on total number of medals

Show code

TotalMedalsPerCountry %>% 
  arrange(desc(TotalMedals))

# A tibble: 39 x 3
# Groups:   Country [39]
   Country                  Code  TotalMedals
   <chr>                    <chr>       <int>
 1 Germany                  DEU           377
 2 Russian Federation       RUS           341
 3 Norway                   NOR           329
 4 United States of America USA           282
 5 Austria                  AUT           218
 6 Canada                   CAN           170
 7 Finland                  FIN           161
 8 Sweden                   SWE           144
 9 Switzerland              CHE           138
10 Italy                    ITA           114
#  with 29 more rows
…
